{
  "data": [
    {
      "id": 12504,
      "sport_id": 2,
      "category_id": null,
      "venue_id": null,
      "manager_id": null,
      "slug": "lepchenko-v",
      "name": "Lepchenko V.",
      "has_logo": true,
      "logo": "https://tipsscore.com/resb/team/lepchenko-v.png",
      "name_translations": {
        "en": "Lepchenko V.",
        "ru": "Лепченко, Варвара",
        "es": "Lepchenko, Varvara",
        "zh": "勒普琴科，瓦尔瓦拉",
        "el": "Λέπσχένκο, Βαρβάρα",
        "pt": "Varvara Lepchenko"
      },
      "name_short": "Lepchenko V.",
      "name_full": "Lepchenko, Varvara",
      "name_code": "LEP",
      "has_sub": false,
      "gender": "F",
      "is_nationality": false,
      "country_code": "USA",
      "country": "USA",
      "flag": "usa",
      "foundation": null,
      "details": {
        "country": "USA",
        "country_i_s_o": "USA",
        "date_of_birth": "35 (21 May 1986)",
        "birthplace": "Tashkent, Uzbekistan",
        "plays": "Left-Handed",
        "residence": "Allentown, PA, USA",
        "weight": "72 kg",
        "height_meters": 1.8,
        "prize_total": "4.2M €",
        "prize_current_euros": 0,
        "prize_total_euros": 4174283,
        "flag": "usa"
      }
    }
  ],
  "meta": {
    "current_page": 11,
    "from": 1001,
    "last_page": 479,
    "per_page": 100,
    "to": 1100,
    "total": 47804
  }
}
