{
  "data": [
    {
      "id": 102110,
      "sport_id": 2,
      "category_id": null,
      "venue_id": null,
      "manager_id": null,
      "slug": "davila-e",
      "name": "Davila E.",
      "has_logo": false,
      "logo": "https://tipsscore.comresb/no-league.png",
      "name_translations": {
        "en": "Davila E."
      },
      "name_short": "Davila E.",
      "name_full": "Davila, Estaban",
      "name_code": "DES",
      "has_sub": false,
      "gender": "M",
      "is_nationality": false,
      "country_code": null,
      "country": null,
      "flag": null,
      "foundation": null,
      "details": null
    },
    {
      "id": 102111,
      "sport_id": 2,
      "category_id": null,
      "venue_id": null,
      "manager_id": null,
      "slug": "mendoza-a-prado-a",
      "name": "Mendoza A / Prado A",
      "has_logo": false,
      "logo": "https://tipsscore.comresb/no-league.png",
      "name_translations": {
        "en": "Mendoza A / Prado A"
      },
      "name_short": "Mendoza A / Prado A",
      "name_full": "Mendoza A / Prado A",
      "name_code": "MAP",
      "has_sub": false,
      "gender": "M",
      "is_nationality": false,
      "country_code": null,
      "country": null,
      "flag": null,
      "foundation": null,
      "details": null
    },
    {
      "id": 102112,
      "sport_id": 2,
      "category_id": null,
      "venue_id": null,
      "manager_id": null,
      "slug": "gomez-herrera-c-mena-f",
      "name": "Gomez-Herrera C / Mena F",
      "has_logo": false,
      "logo": "https://tipsscore.comresb/no-league.png",
      "name_translations": {
        "en": "Gomez-Herrera C / Mena F"
      },
      "name_short": "Gomez-Herrera C / Mena F",
      "name_full": "Gomez-Herrera C / Mena F",
      "name_code": "GCM",
      "has_sub": false,
      "gender": "M",
      "is_nationality": false,
      "country_code": null,
      "country": null,
      "flag": null,
      "foundation": null,
      "details": null
    },
    {
      "id": 102113,
      "sport_id": 2,
      "category_id": null,
      "venue_id": null,
      "manager_id": null,
      "slug": "comesana-f-diaz-acosta-f",
      "name": "Comesana F / Diaz Acosta F",
      "has_logo": false,
      "logo": "https://tipsscore.comresb/no-league.png",
      "name_translations": {
        "en": "Comesana F / Diaz Acosta F"
      },
      "name_short": "Comesana F / Diaz Acosta F",
      "name_full": "Comesana F / Diaz Acosta F",
      "name_code": "CFD",
      "has_sub": false,
      "gender": "M",
      "is_nationality": false,
      "country_code": null,
      "country": null,
      "flag": null,
      "foundation": null,
      "details": null
    },
    {
      "id": 102116,
      "sport_id": 2,
      "category_id": null,
      "venue_id": null,
      "manager_id": null,
      "slug": "rehman-h",
      "name": "Rehman H.",
      "has_logo": false,
      "logo": "https://tipsscore.comresb/no-league.png",
      "name_translations": {
        "en": "Rehman H."
      },
      "name_short": null,
      "name_full": null,
      "name_code": null,
      "has_sub": false,
      "gender": null,
      "is_nationality": false,
      "country_code": null,
      "country": null,
      "flag": null,
      "foundation": null,
      "details": null
    },
    {
      "id": 102117,
      "sport_id": 2,
      "category_id": null,
      "venue_id": null,
      "manager_id": null,
      "slug": "matsuoka-s",
      "name": "Matsuoka S.",
      "has_logo": false,
      "logo": "https://tipsscore.comresb/no-league.png",
      "name_translations": {
        "en": "Matsuoka S."
      },
      "name_short": null,
      "name_full": null,
      "name_code": null,
      "has_sub": false,
      "gender": null,
      "is_nationality": false,
      "country_code": null,
      "country": null,
      "flag": null,
      "foundation": null,
      "details": null
    },
    {
      "id": 102118,
      "sport_id": 2,
      "category_id": null,
      "venue_id": null,
      "manager_id": null,
      "slug": "murariu-j",
      "name": "Murariu J.",
      "has_logo": false,
      "logo": "https://tipsscore.comresb/no-league.png",
      "name_translations": {
        "en": "Murariu J."
      },
      "name_short": null,
      "name_full": null,
      "name_code": null,
      "has_sub": false,
      "gender": null,
      "is_nationality": false,
      "country_code": null,
      "country": null,
      "flag": null,
      "foundation": null,
      "details": null
    },
    {
      "id": 102119,
      "sport_id": 2,
      "category_id": null,
      "venue_id": null,
      "manager_id": null,
      "slug": "rosales-f",
      "name": "Rosales F.",
      "has_logo": false,
      "logo": "https://tipsscore.comresb/no-league.png",
      "name_translations": {
        "en": "Rosales F."
      },
      "name_short": null,
      "name_full": null,
      "name_code": null,
      "has_sub": false,
      "gender": null,
      "is_nationality": false,
      "country_code": null,
      "country": null,
      "flag": null,
      "foundation": null,
      "details": null
    },
    {
      "id": 102120,
      "sport_id": 2,
      "category_id": null,
      "venue_id": null,
      "manager_id": null,
      "slug": "ganesan-a",
      "name": "Ganesan A.",
      "has_logo": false,
      "logo": "https://tipsscore.comresb/no-league.png",
      "name_translations": {
        "en": "Ganesan A."
      },
      "name_short": null,
      "name_full": null,
      "name_code": null,
      "has_sub": false,
      "gender": null,
      "is_nationality": false,
      "country_code": null,
      "country": null,
      "flag": null,
      "foundation": null,
      "details": null
    },
    {
      "id": 102121,
      "sport_id": 2,
      "category_id": null,
      "venue_id": null,
      "manager_id": null,
      "slug": "sec-s",
      "name": "Sec S.",
      "has_logo": false,
      "logo": "https://tipsscore.comresb/no-league.png",
      "name_translations": {
        "en": "Sec S."
      },
      "name_short": null,
      "name_full": null,
      "name_code": null,
      "has_sub": false,
      "gender": null,
      "is_nationality": false,
      "country_code": null,
      "country": null,
      "flag": null,
      "foundation": null,
      "details": null
    },
    {
      "id": 102122,
      "sport_id": 2,
      "category_id": null,
      "venue_id": null,
      "manager_id": null,
      "slug": "tarasevich-u",
      "name": "Tarasevich U.",
      "has_logo": false,
      "logo": "https://tipsscore.comresb/no-league.png",
      "name_translations": {
        "en": "Tarasevich U."
      },
      "name_short": null,
      "name_full": null,
      "name_code": null,
      "has_sub": false,
      "gender": null,
      "is_nationality": false,
      "country_code": null,
      "country": null,
      "flag": null,
      "foundation": null,
      "details": null
    },
    {
      "id": 102123,
      "sport_id": 2,
      "category_id": null,
      "venue_id": null,
      "manager_id": null,
      "slug": "perl-i",
      "name": "Perl I.",
      "has_logo": false,
      "logo": "https://tipsscore.comresb/no-league.png",
      "name_translations": {
        "en": "Perl I."
      },
      "name_short": null,
      "name_full": null,
      "name_code": null,
      "has_sub": false,
      "gender": null,
      "is_nationality": false,
      "country_code": null,
      "country": null,
      "flag": null,
      "foundation": null,
      "details": null
    },
    {
      "id": 102124,
      "sport_id": 2,
      "category_id": null,
      "venue_id": null,
      "manager_id": null,
      "slug": "vakili-k",
      "name": "Vakili K.",
      "has_logo": false,
      "logo": "https://tipsscore.comresb/no-league.png",
      "name_translations": {
        "en": "Vakili K."
      },
      "name_short": null,
      "name_full": null,
      "name_code": null,
      "has_sub": false,
      "gender": null,
      "is_nationality": false,
      "country_code": null,
      "country": null,
      "flag": null,
      "foundation": null,
      "details": null
    },
    {
      "id": 102125,
      "sport_id": 2,
      "category_id": null,
      "venue_id": null,
      "manager_id": null,
      "slug": "blokhin-n",
      "name": "Blokhin N.",
      "has_logo": false,
      "logo": "https://tipsscore.comresb/no-league.png",
      "name_translations": {
        "en": "Blokhin N."
      },
      "name_short": null,
      "name_full": null,
      "name_code": null,
      "has_sub": false,
      "gender": null,
      "is_nationality": false,
      "country_code": null,
      "country": null,
      "flag": null,
      "foundation": null,
      "details": null
    },
    {
      "id": 102126,
      "sport_id": 2,
      "category_id": null,
      "venue_id": null,
      "manager_id": null,
      "slug": "craig-c",
      "name": "Craig C.",
      "has_logo": false,
      "logo": "https://tipsscore.comresb/no-league.png",
      "name_translations": {
        "en": "Craig C."
      },
      "name_short": null,
      "name_full": null,
      "name_code": null,
      "has_sub": false,
      "gender": null,
      "is_nationality": false,
      "country_code": null,
      "country": null,
      "flag": null,
      "foundation": null,
      "details": null
    },
    {
      "id": 102127,
      "sport_id": 2,
      "category_id": null,
      "venue_id": null,
      "manager_id": null,
      "slug": "taschereau-n",
      "name": "Taschereau N.",
      "has_logo": false,
      "logo": "https://tipsscore.comresb/no-league.png",
      "name_translations": {
        "en": "Taschereau N."
      },
      "name_short": null,
      "name_full": null,
      "name_code": null,
      "has_sub": false,
      "gender": null,
      "is_nationality": false,
      "country_code": null,
      "country": null,
      "flag": null,
      "foundation": null,
      "details": null
    },
    {
      "id": 102128,
      "sport_id": 2,
      "category_id": null,
      "venue_id": null,
      "manager_id": null,
      "slug": "fernandez-l-2",
      "name": "Fernandez L.",
      "has_logo": false,
      "logo": "https://tipsscore.comresb/no-league.png",
      "name_translations": {
        "en": "Fernandez L."
      },
      "name_short": null,
      "name_full": null,
      "name_code": null,
      "has_sub": false,
      "gender": null,
      "is_nationality": false,
      "country_code": null,
      "country": null,
      "flag": null,
      "foundation": null,
      "details": null
    },
    {
      "id": 102129,
      "sport_id": 2,
      "category_id": null,
      "venue_id": null,
      "manager_id": null,
      "slug": "mitric-a",
      "name": "Mitric A.",
      "has_logo": false,
      "logo": "https://tipsscore.comresb/no-league.png",
      "name_translations": {
        "en": "Mitric A."
      },
      "name_short": null,
      "name_full": null,
      "name_code": null,
      "has_sub": false,
      "gender": null,
      "is_nationality": false,
      "country_code": null,
      "country": null,
      "flag": null,
      "foundation": null,
      "details": null
    },
    {
      "id": 102130,
      "sport_id": 2,
      "category_id": null,
      "venue_id": null,
      "manager_id": null,
      "slug": "patel-k",
      "name": "Patel K.",
      "has_logo": false,
      "logo": "https://tipsscore.comresb/no-league.png",
      "name_translations": {
        "en": "Patel K."
      },
      "name_short": null,
      "name_full": null,
      "name_code": null,
      "has_sub": false,
      "gender": null,
      "is_nationality": false,
      "country_code": null,
      "country": null,
      "flag": null,
      "foundation": null,
      "details": null
    },
    {
      "id": 102131,
      "sport_id": 2,
      "category_id": null,
      "venue_id": null,
      "manager_id": null,
      "slug": "cerejo-c",
      "name": "Cerejo C.",
      "has_logo": false,
      "logo": "https://tipsscore.comresb/no-league.png",
      "name_translations": {
        "en": "Cerejo C."
      },
      "name_short": null,
      "name_full": null,
      "name_code": null,
      "has_sub": false,
      "gender": null,
      "is_nationality": false,
      "country_code": null,
      "country": null,
      "flag": null,
      "foundation": null,
      "details": null
    },
    {
      "id": 102132,
      "sport_id": 2,
      "category_id": null,
      "venue_id": null,
      "manager_id": null,
      "slug": "blake-d",
      "name": "Blake D.",
      "has_logo": false,
      "logo": "https://tipsscore.comresb/no-league.png",
      "name_translations": {
        "en": "Blake D."
      },
      "name_short": null,
      "name_full": null,
      "name_code": null,
      "has_sub": false,
      "gender": null,
      "is_nationality": false,
      "country_code": null,
      "country": null,
      "flag": null,
      "foundation": null,
      "details": null
    },
    {
      "id": 102133,
      "sport_id": 2,
      "category_id": null,
      "venue_id": null,
      "manager_id": null,
      "slug": "montana-f",
      "name": "Montana F.",
      "has_logo": false,
      "logo": "https://tipsscore.comresb/no-league.png",
      "name_translations": {
        "en": "Montana F."
      },
      "name_short": null,
      "name_full": null,
      "name_code": null,
      "has_sub": false,
      "gender": null,
      "is_nationality": false,
      "country_code": null,
      "country": null,
      "flag": null,
      "foundation": null,
      "details": null
    }
  ],
  "meta": {
    "current_page": 479,
    "from": 47801,
    "last_page": 479,
    "per_page": 100,
    "to": 47822,
    "total": 47822
  }
}